Chapter 3 Model performance | Machine Learning in R
…
Looks neat! how do I get this model in my RStudio to test it? What are the model parameters?

That is the benefit of making your own package.

- Simply run ML::results to get the best performing model straight into your R session
- Look at the documentation by running ?results.

ML::results
#> $predictions
#> # A tibble: 249 x 3
#>    sample_row model_prediction actual_observation
#>         <int>            <dbl>              <dbl>
#>  1          3            18.9               17.3 
#>  2          5             3.81               2.33
#>  3          7            21.2               20.6 
#>  4         14             9.21              10.4 
#>  5         18            34.0               33.3 
#>  6         22            35.9               36.6 
#>  7         23            32.0               31.0 
#>  8         24            31.2               28.9 
#>  9         29            19.9               18.2 
#> 10         30            37.1               29.1 
#> # ... with 239 more rows
…
